Fetch and visualize seascapes • seascapeR
…
# summarize SeaScape grids into a time series table
tbl <- sum_ss_grds_to_ts(grds, ts_csv = ts_csv)
tbl
#> # A tibble: 61 × 3
#>    date       cellvalue n_cells
#>    <date>         <dbl>   <dbl>
#>  1 2020-01-15         7       2
#>  2 2020-01-15        12      31
#>  3 2020-01-15        14     565
#>  4 2020-01-15        21       2
#>  5 2020-01-15        NA    1368
#>  6 2020-02-15        14     547
#>  7 2020-02-15        19      11
#>  8 2020-02-15        21      44
#>  9 2020-02-15        NA    1366
#> 10 2020-03-15         7       3
#> # … with 51 more rows
…
