Introduction • seascapeR
…
# SeaScape date ranges
get_ss_dates(ss_gl_mo)
#> [1] "2003-01-15" "2023-02-15"
get_ss_dates(ss_gl_8d)
#> [1] "2002-08-29" "2023-02-26"

Show Information on Seascape Classes

# show dataset of Seascape Global Classes information
ss_gl_classes
#> # A tibble: 33 × 13
#>    CLASS NAME    SST (…¹ SSS (…² ADT (…³ ICE (…⁴ CDOM …⁵ CHLA …⁶ NFLH …⁷ NFLH:…⁸
#>    <dbl> <chr>     <dbl>   <dbl>   <dbl>   <dbl>   <dbl>   <dbl>   <dbl>   <dbl>
#>  1     1 NORTH …    5.08    34.2   -0.37       0    0.01    0.21    0.08    0.37
#>  2     2 SUBPOL…   12.2     34.4    0.5        0    0.01    0.12    0.06    0.51
#>  3     3 TROPIC…   24.1     35.3    0.68       0    0.01    0.15    0.06    0.4 
#>  4     4 WESTER…   28.2     34.4    1.1        0    0       0.06    0.05    0.79
#>  5     5 SUBTRO…   24.0     35.9    0.71       0    0       0.07    0.04    0.5 
#>  6     6 ACC, N…    1.38    34.0   -1          0    0.01    0.18    0.07    0.42
#>  7     7 TEMPER…   13.0     34.7    0.37       0    0.01    0.28    0.11    0.41
#>  8     8 INDOPA…   25.1     34.5    0.99       0    0       0.07    0.02    0.34
#>  9     9 EQUATO…   28.0     33.8    0.86       0    0.01    0.14    0.05    0.37
#> 10    10 HIGHLY…   23.8     35.6    0.87       0    0       0.04    0.03    0.79
#> # … with 23 more rows, 3 more variables: LATITUDE <chr>,
#> #   `DOMINANT HEMISPHERE` <chr>, `DOMINANT SEASON` <chr>, and abbreviated
#> #   variable names ¹​`SST (°C)`, ²​`SSS (psu)`, ³​`ADT (m)`, ⁴​`ICE (%)`,
#> #   ⁵​`CDOM (m^-1^)`, ⁶​`CHLA (mg m^-3^)`, ⁷​`NFLH (W m^-2^ µm^-1^ sr^-1^)`,
#> #   ⁸​`NFLH:CHL`
…
# get first grid, a raster layer in the raster stack grds
grd <- raster::raster(grds, 1)

# map SeaScape grid
map_ss_grd(grd)

Summarize Seascape grids into a time series table

ts_csv = glue::glue(
  "{dir_data}/{sanctuary}_{ss_dataset}_{ss_var}.csv")

tbl <- sum_ss_grds_to_ts(grds, ts_csv = ts_csv)
tbl
#> # A tibble: 105 × 3
#>    date       cellvalue n_cells
#>    <date>         <dbl>   <dbl>
#>  1 2022-10-16         3       4
#>  2 2022-10-16        11      20
#>  3 2022-10-16        13       3
#>  4 2022-10-16        15     103
#>  5 2022-10-16        21      99
#>  6 2022-10-16        23       1
#>  7 2022-10-16        27      19
#>  8 2022-10-16        NA    1487
#>  9 2022-10-24         3       3
#> 10 2022-10-24        11       2
#> # … with 95 more rows
…
