Introduction • seascapeR
…
# SeaScape date ranges
get_ss_dates(ss_gl_mo)
#> [1] "2002-09-15" "2024-07-15"
get_ss_dates(ss_gl_8d)
#> [1] "2002-08-29" "2024-07-19"

Show Information on Seascape Classes

# show dataset of Seascape Global Classes information
ss_gl_classes
#> # A tibble: 33 × 13
#>    CLASS NAME          `SST (°C)` `SSS (psu)` `ADT (m)` `ICE (%)` `CDOM (m^-1^)`
#>    <dbl> <chr>              <dbl>       <dbl>     <dbl>     <dbl>          <dbl>
#>  1     1 NORTH ATLANT…       5.08        34.2     -0.37         0           0.01
#>  2     2 SUBPOLAR TRA…      12.2         34.4      0.5          0           0.01
#>  3     3 TROPICAL SUB…      24.1         35.3      0.68         0           0.01
#>  4     4 WESTERN WARM…      28.2         34.4      1.1          0           0   
#>  5     5 SUBTROPICAL …      24.0         35.9      0.71         0           0   
#>  6     6 ACC, NUTRIEN…       1.38        34.0     -1            0           0.01
#>  7     7 TEMPERATE TR…      13.0         34.7      0.37         0           0.01
#>  8     8 INDOPACIFIC …      25.1         34.5      0.99         0           0   
#>  9     9 EQUATORIAL T…      28.0         33.8      0.86         0           0.01
#> 10    10 HIGHLY OLIGO…      23.8         35.6      0.87         0           0   
#> # ℹ 23 more rows
#> # ℹ 6 more variables: `CHLA (mg m^-3^)` <dbl>,
#> #   `NFLH (W m^-2^ µm^-1^ sr^-1^)` <dbl>, `NFLH:CHL` <dbl>, LATITUDE <chr>,
#> #   `DOMINANT HEMISPHERE` <chr>, `DOMINANT SEASON` <chr>
…
# get first grid, a raster layer in the raster stack grds
grd <- raster::raster(grds, 1)

# map SeaScape grid
map_ss_grd(grd)

Summarize Seascape grids into a time series table

ts_csv = glue::glue(
  "{dir_data}/{sanctuary}_{ss_dataset}_{ss_var}.csv")

tbl <- sum_ss_grds_to_ts(grds, ts_csv = ts_csv)
tbl
#> # A tibble: 87 × 3
#>    date       cellvalue n_cells
#>    <date>         <int>   <int>
#>  1 2022-10-16         3       2
#>  2 2022-10-16        11       3
#>  3 2022-10-16        13       3
#>  4 2022-10-16        15     113
#>  5 2022-10-16        21     106
#>  6 2022-10-16        27      64
#>  7 2022-10-16        NA    1445
#>  8 2022-10-24         3       1
#>  9 2022-10-24        13       8
#> 10 2022-10-24        15     133
#> # ℹ 77 more rows
…
